#
# A fatal error has been detected by the Java Runtime Environment:
#
#  EXCEPTION_ACCESS_VIOLATION (0xc0000005) at pc=0x00007ff977941f40, pid=5396, tid=0x0000000000000c2c
#
# JRE version: Java(TM) SE Runtime Environment (8.0_144-b01) (build 1.8.0_144-b01)
# Java VM: Java HotSpot(TM) 64-Bit Server VM (25.144-b01 mixed mode windows-amd64 compressed oops)
# Problematic frame:
# C  0x00007ff977941f40
#
# Failed to write core dump. Minidumps are not enabled by default on client versions of Windows
#
# If you would like to submit a bug report, please visit:
#   http://bugreport.java.com/bugreport/crash.jsp
# The crash happened outside the Java Virtual Machine in native code.
# See problematic frame for where to report the bug.
#

---------------  T H R E A D  ---------------

Current thread (0x000000001666e800):  JavaThread "Thread-3" [_thread_in_native, id=3116, stack(0x0000000016db0000,0x0000000016eb0000)]

siginfo: ExceptionCode=0xc0000005, reading address 0xffffffffffffffff

Registers:
RAX=0x0000000000000001, RBX=0x0000000018f9e940, RCX=0x0037003500350044, RDX=0x0000000000000001
RSP=0x0000000016eac948, RBP=0x0000000018f9e940, RSI=0x0000000000000000, RDI=0x0037003500350044
R8 =0x0000000000590150, R9 =0x0000000000000000, R10=0x00000000000023b5, R11=0x0000000016eac830
R12=0x0000000000000000, R13=0x000000001acbf570, R14=0x0000000016eacbe0, R15=0x000000001ae76cb0
RIP=0x00007ff977941f40, EFLAGS=0x0000000000010206

Top of Stack: (sp=0x0000000016eac948)
0x0000000016eac948:   00007ff9778ccda7 0000000018f9e940
0x0000000016eac958:   0000000018f9e940 000000001ae58e80
0x0000000016eac968:   000000001ae58e80 fffffffffffffffe
0x0000000016eac978:   00007ff977d55dc0 00000000fffffffb
0x0000000016eac988:   00007ff97792cb9d 000000001aedaef0
0x0000000016eac998:   000000001ae58e80 000000001ae58fc0
0x0000000016eac9a8:   00007ff977d55dc0 0000000000000001
0x0000000016eac9b8:   0000000016eac9e0 000000001aedb480
0x0000000016eac9c8:   0000000000000000 fffffffffffffffe
0x0000000016eac9d8:   0000000018f9e940 0000000000000000
0x0000000016eac9e8:   0000000000000000 0000000000000000
0x0000000016eac9f8:   0000000000000000 0000000000000000
0x0000000016eaca08:   0000000000000001 0000000000000000
0x0000000016eaca18:   0000000000000000 0000000000000000
0x0000000016eaca28:   0000000000000000 0000000000000000
0x0000000016eaca38:   00007ff98fb71f97 0000000000000001 

Instructions: (pc=0x00007ff977941f40)
0x00007ff977941f20:   82 30 2e 02 00 c7 82 34 2e 02 00 08 00 00 00 48
0x00007ff977941f30:   8b c2 c3 cc cc cc cc cc cc cc cc cc cc cc cc cc
0x00007ff977941f40:   83 b9 30 2e 02 00 01 74 09 83 b9 00 2e 02 00 00
0x00007ff977941f50:   76 05 e9 39 02 00 00 c3 cc cc cc cc cc cc cc cc 


Register to memory mapping:

RAX=0x0000000000000001 is an unknown value
RBX=0x0000000018f9e940 is an unknown value
RCX=0x0037003500350044 is an unknown value
RDX=0x0000000000000001 is an unknown value
RSP=0x0000000016eac948 is pointing into the stack for thread: 0x000000001666e800
RBP=0x0000000018f9e940 is an unknown value
RSI=0x0000000000000000 is an unknown value
RDI=0x0037003500350044 is an unknown value
R8 =0x0000000000590150 is an unknown value
R9 =0x0000000000000000 is an unknown value
R10=0x00000000000023b5 is an unknown value
R11=0x0000000016eac830 is pointing into the stack for thread: 0x000000001666e800
R12=0x0000000000000000 is an unknown value
R13=0x000000001acbf570 is an unknown value
R14=0x0000000016eacbe0 is pointing into the stack for thread: 0x000000001666e800
R15=0x000000001ae76cb0 is an unknown value


Stack: [0x0000000016db0000,0x0000000016eb0000],  sp=0x0000000016eac948,  free space=1010k
Native frames: (J=compiled Java code, j=interpreted, Vv=VM code, C=native code)
C  0x00007ff977941f40

Java frames: (J=compiled Java code, j=interpreted, Vv=VM code)
j  intel.rssdk.PXCMSenseManager.PXCMSenseManager_Init(JLintel/rssdk/PXCMSenseManager$SMHandler;)Lintel/rssdk/pxcmStatus;+0
j  intel.rssdk.PXCMSenseManager.Init(Lintel/rssdk/PXCMSenseManager$Handler;)Lintel/rssdk/pxcmStatus;+21
j  intel.rssdk.PXCMSenseManager.Init()Lintel/rssdk/pxcmStatus;+2
j  io.ccs.service.modules.ModuleCommandRose.run(Lio/ccs/service/core/ModuleAPI;)V+184
j  io.ccs.service.core.ModuleThread.run()V+12
v  ~StubRoutines::call_stub

---------------  P R O C E S S  ---------------

Java Threads: ( => current thread )
  0x00000000175ec800 JavaThread "Thread-12" [_thread_blocked, id=7296, stack(0x000000001ccb0000,0x000000001cdb0000)]
  0x00000000175f2000 JavaThread "nioEventLoopGroup-2-1" [_thread_in_native, id=9548, stack(0x000000001af00000,0x000000001b000000)]
  0x00000000175c2000 JavaThread "Direct Clip" daemon [_thread_blocked, id=6420, stack(0x000000001a260000,0x000000001a360000)]
  0x00000000175b2800 JavaThread "Java Sound Event Dispatcher" daemon [_thread_blocked, id=6704, stack(0x0000000019e60000,0x0000000019f60000)]
  0x0000000016677800 JavaThread "Thread-7" [_thread_blocked, id=5860, stack(0x00000000171b0000,0x00000000172b0000)]
  0x0000000016673000 JavaThread "Thread-6" [_thread_blocked, id=10208, stack(0x00000000170b0000,0x00000000171b0000)]
  0x0000000016670000 JavaThread "Thread-5" [_thread_blocked, id=8628, stack(0x0000000016fb0000,0x00000000170b0000)]
  0x000000001666f800 JavaThread "Thread-4" [_thread_in_vm, id=3984, stack(0x0000000016eb0000,0x0000000016fb0000)]
=>0x000000001666e800 JavaThread "Thread-3" [_thread_in_native, id=3116, stack(0x0000000016db0000,0x0000000016eb0000)]
  0x000000001666e000 JavaThread "Thread-2" [_thread_blocked, id=32, stack(0x0000000016cb0000,0x0000000016db0000)]
  0x000000001666d000 JavaThread "Thread-1" [_thread_blocked, id=7316, stack(0x0000000016bb0000,0x0000000016cb0000)]
  0x0000000016669800 JavaThread "Thread-0" [_thread_blocked, id=2176, stack(0x0000000016ab0000,0x0000000016bb0000)]
  0x0000000014a6d000 JavaThread "Service Thread" daemon [_thread_blocked, id=13708, stack(0x0000000016770000,0x0000000016870000)]
  0x0000000014a3b800 JavaThread "C1 CompilerThread2" daemon [_thread_blocked, id=4824, stack(0x0000000016270000,0x0000000016370000)]
  0x0000000014a12800 JavaThread "C2 CompilerThread1" daemon [_thread_blocked, id=6156, stack(0x0000000016170000,0x0000000016270000)]
  0x0000000014a0f800 JavaThread "C2 CompilerThread0" daemon [_thread_blocked, id=1724, stack(0x0000000016070000,0x0000000016170000)]
  0x0000000014a0d000 JavaThread "Attach Listener" daemon [_thread_blocked, id=5300, stack(0x0000000015f70000,0x0000000016070000)]
  0x0000000014a0b800 JavaThread "Signal Dispatcher" daemon [_thread_blocked, id=4496, stack(0x0000000015e70000,0x0000000015f70000)]
  0x00000000149fa800 JavaThread "Finalizer" daemon [_thread_blocked, id=11800, stack(0x0000000015c80000,0x0000000015d80000)]
  0x00000000023df000 JavaThread "Reference Handler" daemon [_thread_blocked, id=4868, stack(0x0000000015b80000,0x0000000015c80000)]
  0x00000000022f0800 JavaThread "main" [_thread_blocked, id=11520, stack(0x0000000002000000,0x0000000002100000)]

Other Threads:
  0x00000000149d7800 VMThread [stack: 0x0000000015a80000,0x0000000015b80000] [id=13724]
  0x00000000163ac000 WatcherThread [stack: 0x00000000169b0000,0x0000000016ab0000] [id=4916]

VM state:not at safepoint (normal execution)

VM Mutex/Monitor currently owned by a thread: None

Heap:
 PSYoungGen      total 223232K, used 212049K [0x00000000eb100000, 0x0000000100000000, 0x0000000100000000)
  eden space 205824K, 96% used [0x00000000eb100000,0x00000000f739eee0,0x00000000f7a00000)
  from space 17408K, 73% used [0x00000000f7a00000,0x00000000f8675550,0x00000000f8b00000)
  to   space 28160K, 0% used [0x00000000fe480000,0x00000000fe480000,0x0000000100000000)
 ParOldGen       total 87040K, used 43556K [0x00000000c1200000, 0x00000000c6700000, 0x00000000eb100000)
  object space 87040K, 50% used [0x00000000c1200000,0x00000000c3c891d8,0x00000000c6700000)
 Metaspace       used 13423K, capacity 13548K, committed 13696K, reserved 1060864K
  class space    used 1584K, capacity 1638K, committed 1664K, reserved 1048576K

Card table byte_map: [0x00000000117b0000,0x00000000119b0000] byte_map_base: 0x00000000111a7000

Marking Bits: (ParMarkBitMap*) 0x000000007485d850
 Begin Bits: [0x0000000011f00000, 0x0000000012eb8000)
 End Bits:   [0x0000000012eb8000, 0x0000000013e70000)

Polling page: 0x0000000000540000

CodeCache: size=245760Kb used=5504Kb max_used=5504Kb free=240255Kb
 bounds [0x00000000023f0000, 0x0000000002960000, 0x00000000113f0000]
 total_blobs=1868 nmethods=1453 adapters=327
 compilation: enabled

Compilation events (10 events):
Event: 5.839 Thread 0x0000000014a3b800 1444       3       edu.cmu.sphinx.frontend.endpoint.SpeechClassifier::logRootMeanSquare (82 bytes)
Event: 5.839 Thread 0x0000000014a3b800 nmethod 1444 0x0000000002945850 code [0x0000000002945a00, 0x0000000002945d08]
Event: 5.840 Thread 0x0000000014a3b800 1445       3       edu.cmu.sphinx.frontend.transform.DiscreteFourierTransform::recurseFft (147 bytes)
Event: 5.840 Thread 0x0000000014a3b800 nmethod 1445 0x000000000294e750 code [0x000000000294e960, 0x000000000294f128]
Event: 5.968 Thread 0x0000000014a3b800 1446       3       edu.cmu.sphinx.frontend.transform.DiscreteCosineTransform2::applyMelCosine (161 bytes)
Event: 5.969 Thread 0x0000000014a3b800 nmethod 1446 0x000000000294c890 code [0x000000000294ca60, 0x000000000294d030]
Event: 5.969 Thread 0x0000000014a3b800 1447       3       edu.cmu.sphinx.frontend.filter.Preemphasizer::applyPreemphasis (98 bytes)
Event: 5.969 Thread 0x0000000014a3b800 nmethod 1447 0x000000000294f8d0 code [0x000000000294fa40, 0x000000000294fdb0]
Event: 5.969 Thread 0x0000000014a3b800 1448       3       java.util.LinkedList::<init> (10 bytes)
Event: 5.969 Thread 0x0000000014a3b800 nmethod 1448 0x000000000294ff10 code [0x0000000002950080, 0x0000000002950350]

GC Heap History (10 events):
Event: 2.126 GC heap before
{Heap before GC invocations=8 (full 0):
 PSYoungGen      total 80384K, used 67173K [0x00000000eb100000, 0x00000000f4d00000, 0x0000000100000000)
  eden space 65536K, 100% used [0x00000000eb100000,0x00000000ef100000,0x00000000ef100000)
  from space 14848K, 11% used [0x00000000ef100000,0x00000000ef2995b8,0x00000000eff80000)
  to   space 14336K, 0% used [0x00000000f3f00000,0x00000000f3f00000,0x00000000f4d00000)
 ParOldGen       total 44032K, used 17914K [0x00000000c1200000, 0x00000000c3d00000, 0x00000000eb100000)
  object space 44032K, 40% used [0x00000000c1200000,0x00000000c237e8b8,0x00000000c3d00000)
 Metaspace       used 12785K, capacity 12972K, committed 13184K, reserved 1060864K
  class space    used 1511K, capacity 1574K, committed 1664K, reserved 1048576K
Event: 2.128 GC heap after
Heap after GC invocations=8 (full 0):
 PSYoungGen      total 144384K, used 128K [0x00000000eb100000, 0x00000000f4c00000, 0x0000000100000000)
  eden space 131072K, 0% used [0x00000000eb100000,0x00000000eb100000,0x00000000f3100000)
  from space 13312K, 0% used [0x00000000f3f00000,0x00000000f3f20000,0x00000000f4c00000)
  to   space 13824K, 0% used [0x00000000f3100000,0x00000000f3100000,0x00000000f3e80000)
 ParOldGen       total 44032K, used 19495K [0x00000000c1200000, 0x00000000c3d00000, 0x00000000eb100000)
  object space 44032K, 44% used [0x00000000c1200000,0x00000000c2509ed0,0x00000000c3d00000)
 Metaspace       used 12785K, capacity 12972K, committed 13184K, reserved 1060864K
  class space    used 1511K, capacity 1574K, committed 1664K, reserved 1048576K
}
Event: 2.401 GC heap before
{Heap before GC invocations=9 (full 0):
 PSYoungGen      total 144384K, used 131200K [0x00000000eb100000, 0x00000000f4c00000, 0x0000000100000000)
  eden space 131072K, 100% used [0x00000000eb100000,0x00000000f3100000,0x00000000f3100000)
  from space 13312K, 0% used [0x00000000f3f00000,0x00000000f3f20000,0x00000000f4c00000)
  to   space 13824K, 0% used [0x00000000f3100000,0x00000000f3100000,0x00000000f3e80000)
 ParOldGen       total 44032K, used 19495K [0x00000000c1200000, 0x00000000c3d00000, 0x00000000eb100000)
  object space 44032K, 44% used [0x00000000c1200000,0x00000000c2509ed0,0x00000000c3d00000)
 Metaspace       used 12815K, capacity 12972K, committed 13184K, reserved 1060864K
  class space    used 1515K, capacity 1574K, committed 1664K, reserved 1048576K
Event: 2.403 GC heap after
Heap after GC invocations=9 (full 0):
 PSYoungGen      total 144896K, used 1088K [0x00000000eb100000, 0x00000000f9800000, 0x0000000100000000)
  eden space 131072K, 0% used [0x00000000eb100000,0x00000000eb100000,0x00000000f3100000)
  from space 13824K, 7% used [0x00000000f3100000,0x00000000f3210000,0x00000000f3e80000)
  to   space 13312K, 0% used [0x00000000f8b00000,0x00000000f8b00000,0x00000000f9800000)
 ParOldGen       total 44032K, used 19503K [0x00000000c1200000, 0x00000000c3d00000, 0x00000000eb100000)
  object space 44032K, 44% used [0x00000000c1200000,0x00000000c250bed0,0x00000000c3d00000)
 Metaspace       used 12815K, capacity 12972K, committed 13184K, reserved 1060864K
  class space    used 1515K, capacity 1574K, committed 1664K, reserved 1048576K
}
Event: 2.818 GC heap before
{Heap before GC invocations=10 (full 0):
 PSYoungGen      total 144896K, used 132160K [0x00000000eb100000, 0x00000000f9800000, 0x0000000100000000)
  eden space 131072K, 100% used [0x00000000eb100000,0x00000000f3100000,0x00000000f3100000)
  from space 13824K, 7% used [0x00000000f3100000,0x00000000f3210000,0x00000000f3e80000)
  to   space 13312K, 0% used [0x00000000f8b00000,0x00000000f8b00000,0x00000000f9800000)
 ParOldGen       total 44032K, used 19503K [0x00000000c1200000, 0x00000000c3d00000, 0x00000000eb100000)
  object space 44032K, 44% used [0x00000000c1200000,0x00000000c250bed0,0x00000000c3d00000)
 Metaspace       used 12948K, capacity 13100K, committed 13440K, reserved 1060864K
  class space    used 1521K, capacity 1574K, committed 1664K, reserved 1048576K
Event: 2.844 GC heap after
Heap after GC invocations=10 (full 0):
 PSYoungGen      total 219136K, used 13305K [0x00000000eb100000, 0x00000000fa000000, 0x0000000100000000)
  eden space 205824K, 0% used [0x00000000eb100000,0x00000000eb100000,0x00000000f7a00000)
  from space 13312K, 99% used [0x00000000f8b00000,0x00000000f97fe560,0x00000000f9800000)
  to   space 17408K, 0% used [0x00000000f7a00000,0x00000000f7a00000,0x00000000f8b00000)
 ParOldGen       total 44032K, used 23703K [0x00000000c1200000, 0x00000000c3d00000, 0x00000000eb100000)
  object space 44032K, 53% used [0x00000000c1200000,0x00000000c2925ed0,0x00000000c3d00000)
 Metaspace       used 12948K, capacity 13100K, committed 13440K, reserved 1060864K
  class space    used 1521K, capacity 1574K, committed 1664K, reserved 1048576K
}
Event: 3.384 GC heap before
{Heap before GC invocations=11 (full 0):
 PSYoungGen      total 219136K, used 219129K [0x00000000eb100000, 0x00000000fa000000, 0x0000000100000000)
  eden space 205824K, 100% used [0x00000000eb100000,0x00000000f7a00000,0x00000000f7a00000)
  from space 13312K, 99% used [0x00000000f8b00000,0x00000000f97fe560,0x00000000f9800000)
  to   space 17408K, 0% used [0x00000000f7a00000,0x00000000f7a00000,0x00000000f8b00000)
 ParOldGen       total 44032K, used 23703K [0x00000000c1200000, 0x00000000c3d00000, 0x00000000eb100000)
  object space 44032K, 53% used [0x00000000c1200000,0x00000000c2925ed0,0x00000000c3d00000)
 Metaspace       used 12950K, capacity 13100K, committed 13440K, reserved 1060864K
  class space    used 1521K, capacity 1574K, committed 1664K, reserved 1048576K
Event: 3.492 GC heap after
Heap after GC invocations=11 (full 0):
 PSYoungGen      total 223232K, used 17376K [0x00000000eb100000, 0x0000000100000000, 0x0000000100000000)
  eden space 205824K, 0% used [0x00000000eb100000,0x00000000eb100000,0x00000000f7a00000)
  from space 17408K, 99% used [0x00000000f7a00000,0x00000000f8af8398,0x00000000f8b00000)
  to   space 28160K, 0% used [0x00000000fe480000,0x00000000fe480000,0x0000000100000000)
 ParOldGen       total 44032K, used 43048K [0x00000000c1200000, 0x00000000c3d00000, 0x00000000eb100000)
  object space 44032K, 97% used [0x00000000c1200000,0x00000000c3c0a0b8,0x00000000c3d00000)
 Metaspace       used 12950K, capacity 13100K, committed 13440K, reserved 1060864K
  class space    used 1521K, capacity 1574K, committed 1664K, reserved 1048576K
}
Event: 3.492 GC heap before
{Heap before GC invocations=12 (full 1):
 PSYoungGen      total 223232K, used 17376K [0x00000000eb100000, 0x0000000100000000, 0x0000000100000000)
  eden space 205824K, 0% used [0x00000000eb100000,0x00000000eb100000,0x00000000f7a00000)
  from space 17408K, 99% used [0x00000000f7a00000,0x00000000f8af8398,0x00000000f8b00000)
  to   space 28160K, 0% used [0x00000000fe480000,0x00000000fe480000,0x0000000100000000)
 ParOldGen       total 44032K, used 43048K [0x00000000c1200000, 0x00000000c3d00000, 0x00000000eb100000)
  object space 44032K, 97% used [0x00000000c1200000,0x00000000c3c0a0b8,0x00000000c3d00000)
 Metaspace       used 12950K, capacity 13100K, committed 13440K, reserved 1060864K
  class space    used 1521K, capacity 1574K, committed 1664K, reserved 1048576K
Event: 4.125 GC heap after
Heap after GC invocations=12 (full 1):
 PSYoungGen      total 223232K, used 12757K [0x00000000eb100000, 0x0000000100000000, 0x0000000100000000)
  eden space 205824K, 0% used [0x00000000eb100000,0x00000000eb100000,0x00000000f7a00000)
  from space 17408K, 73% used [0x00000000f7a00000,0x00000000f8675550,0x00000000f8b00000)
  to   space 28160K, 0% used [0x00000000fe480000,0x00000000fe480000,0x0000000100000000)
 ParOldGen       total 87040K, used 43556K [0x00000000c1200000, 0x00000000c6700000, 0x00000000eb100000)
  object space 87040K, 50% used [0x00000000c1200000,0x00000000c3c891d8,0x00000000c6700000)
 Metaspace       used 12950K, capacity 13100K, committed 13440K, reserved 1060864K
  class space    used 1521K, capacity 1574K, committed 1664K, reserved 1048576K
}

Deoptimization events (10 events):
Event: 2.424 Thread 0x000000001666e000 Uncommon trap: reason=class_check action=maybe_recompile pc=0x00000000027dcc3c method=sun.nio.cs.SingleByte.withResult(Ljava/nio/charset/CoderResult;Ljava/nio/Buffer;ILjava/nio/Buffer;I)Ljava/nio/charset/CoderResult; @ 3
Event: 4.378 Thread 0x000000001666e000 Uncommon trap: reason=unstable_if action=reinterpret pc=0x00000000028fc614 method=edu.cmu.sphinx.linguist.acoustic.tiedstate.Sphinx3Loader.loadHMMPool(ZLjava/io/InputStream;)V @ 613
Event: 4.385 Thread 0x000000001666e000 Uncommon trap: reason=unstable_if action=reinterpret pc=0x00000000027d0514 method=java.util.ArrayList.isEmpty()Z @ 4
Event: 4.390 Thread 0x000000001666e000 Uncommon trap: reason=unstable_if action=reinterpret pc=0x00000000027eb580 method=java.nio.charset.CharsetDecoder.decode(Ljava/nio/ByteBuffer;Ljava/nio/CharBuffer;Z)Ljava/nio/charset/CoderResult; @ 1
Event: 4.390 Thread 0x000000001666e000 Uncommon trap: reason=predicate action=maybe_recompile pc=0x00000000027dfc78 method=java.nio.charset.CharsetDecoder.decode(Ljava/nio/ByteBuffer;Ljava/nio/CharBuffer;Z)Ljava/nio/charset/CoderResult; @ 54
Event: 4.602 Thread 0x000000001666e000 Uncommon trap: reason=unstable_if action=reinterpret pc=0x00000000027de010 method=sun.nio.cs.StreamDecoder.ensureOpen()V @ 4
Event: 4.603 Thread 0x000000001666e000 Uncommon trap: reason=unstable_if action=reinterpret pc=0x00000000028aace0 method=edu.cmu.sphinx.linguist.acoustic.UnitManager.getUnit(Ljava/lang/String;ZLedu/cmu/sphinx/linguist/acoustic/Context;)Ledu/cmu/sphinx/linguist/acoustic/Unit; @ 19
Event: 4.631 Thread 0x000000001666e000 Uncommon trap: reason=unstable_if action=reinterpret pc=0x00000000028af11c method=edu.cmu.sphinx.linguist.acoustic.Unit.toString()Ljava/lang/String; @ 70
Event: 4.631 Thread 0x000000001666e000 Uncommon trap: reason=unstable_if action=reinterpret pc=0x00000000028b180c method=edu.cmu.sphinx.linguist.acoustic.LeftRightContext.getContextName([Ledu/cmu/sphinx/linguist/acoustic/Unit;)Ljava/lang/String; @ 9
Event: 4.654 Thread 0x000000001666e000 Uncommon trap: reason=unstable_if action=reinterpret pc=0x0000000002624f84 method=java.lang.AbstractStringBuilder.append(Ljava/lang/String;)Ljava/lang/AbstractStringBuilder; @ 1

Internal exceptions (10 events):
Event: 1.355 Thread 0x0000000016669800 Exception <a 'java/io/FileNotFoundException'> (0x00000000ebf46830) thrown at [C:\re\workspace\8-2-build-windows-amd64-cygwin\jdk8u144\9417\hotspot\src\share\vm\prims\jni.cpp, line 709]
Event: 1.392 Thread 0x0000000016669800 Exception <a 'java/io/FileNotFoundException'> (0x00000000ebf5c990) thrown at [C:\re\workspace\8-2-build-windows-amd64-cygwin\jdk8u144\9417\hotspot\src\share\vm\prims\jni.cpp, line 709]
Event: 1.451 Thread 0x000000001666e000 Exception <a 'java/io/FileNotFoundException'> (0x00000000ec0c3f20) thrown at [C:\re\workspace\8-2-build-windows-amd64-cygwin\jdk8u144\9417\hotspot\src\share\vm\prims\jni.cpp, line 709]
Event: 2.394 Thread 0x0000000016669800 Exception <a 'java/io/FileNotFoundException'> (0x00000000f2e18530) thrown at [C:\re\workspace\8-2-build-windows-amd64-cygwin\jdk8u144\9417\hotspot\src\share\vm\prims\jni.cpp, line 709]
Event: 2.396 Thread 0x0000000016669800 Exception <a 'java/io/FileNotFoundException'> (0x00000000f2e2e690) thrown at [C:\re\workspace\8-2-build-windows-amd64-cygwin\jdk8u144\9417\hotspot\src\share\vm\prims\jni.cpp, line 709]
Event: 4.126 Thread 0x0000000016669800 Exception <a 'java/io/FileNotFoundException'> (0x00000000eb15f418) thrown at [C:\re\workspace\8-2-build-windows-amd64-cygwin\jdk8u144\9417\hotspot\src\share\vm\prims\jni.cpp, line 709]
Event: 4.129 Thread 0x0000000016669800 Exception <a 'java/io/FileNotFoundException'> (0x00000000eb175578) thrown at [C:\re\workspace\8-2-build-windows-amd64-cygwin\jdk8u144\9417\hotspot\src\share\vm\prims\jni.cpp, line 709]
Event: 4.654 Thread 0x000000001666e000 Implicit null exception at 0x0000000002624bd6 to 0x0000000002624f6d
Event: 5.130 Thread 0x0000000016669800 Exception <a 'java/io/FileNotFoundException'> (0x00000000eb185030) thrown at [C:\re\workspace\8-2-build-windows-amd64-cygwin\jdk8u144\9417\hotspot\src\share\vm\prims\jni.cpp, line 709]
Event: 5.133 Thread 0x0000000016669800 Exception <a 'java/io/FileNotFoundException'> (0x00000000eb19b190) thrown at [C:\re\workspace\8-2-build-windows-amd64-cygwin\jdk8u144\9417\hotspot\src\share\vm\prims\jni.cpp, line 709]

Events (10 events):
Event: 5.298 loading class edu/cmu/sphinx/util/Complex
Event: 5.298 loading class edu/cmu/sphinx/util/Complex done
Event: 5.300 loading class edu/cmu/sphinx/frontend/frequencywarp/MelFilter
Event: 5.300 loading class edu/cmu/sphinx/frontend/frequencywarp/MelFilter done
Event: 5.450 Thread 0x00000000175ec800 DEOPT PACKING pc=0x0000000002944b76 sp=0x000000001cdae9a0
Event: 5.450 Thread 0x00000000175ec800 DEOPT UNPACKING pc=0x000000000243787f sp=0x000000001cdae6f0 mode 0
Event: 5.451 Thread 0x00000000175ec800 DEOPT PACKING pc=0x0000000002944b76 sp=0x000000001cdaea60
Event: 5.451 Thread 0x00000000175ec800 DEOPT UNPACKING pc=0x000000000243787f sp=0x000000001cdae7b0 mode 0
Event: 5.452 Thread 0x00000000175ec800 DEOPT PACKING pc=0x0000000002944b76 sp=0x000000001cdaea60
Event: 5.452 Thread 0x00000000175ec800 DEOPT UNPACKING pc=0x000000000243787f sp=0x000000001cdae7b0 mode 0


Dynamic libraries:
0x00007ff773c60000 - 0x00007ff773c97000 	C:\Program Files\Java\jre1.8.0_144\bin\javaw.exe
0x00007ff9b4460000 - 0x00007ff9b463b000 	C:\WINDOWS\SYSTEM32\ntdll.dll
0x00007ff9b38e0000 - 0x00007ff9b398e000 	C:\WINDOWS\System32\KERNEL32.DLL
0x00007ff9b0e80000 - 0x00007ff9b10c9000 	C:\WINDOWS\System32\KERNELBASE.dll
0x00007ff9b3c20000 - 0x00007ff9b3cc1000 	C:\WINDOWS\System32\ADVAPI32.dll
0x00007ff9b3cd0000 - 0x00007ff9b3d6d000 	C:\WINDOWS\System32\msvcrt.dll
0x00007ff9b1c10000 - 0x00007ff9b1c69000 	C:\WINDOWS\System32\sechost.dll
0x00007ff9b19c0000 - 0x00007ff9b1ae5000 	C:\WINDOWS\System32\RPCRT4.dll
0x00007ff9b3ec0000 - 0x00007ff9b400a000 	C:\WINDOWS\System32\USER32.dll
0x00007ff9b09d0000 - 0x00007ff9b09ee000 	C:\WINDOWS\System32\win32u.dll
0x00007ff9b1f70000 - 0x00007ff9b1f97000 	C:\WINDOWS\System32\GDI32.dll
0x00007ff9b1130000 - 0x00007ff9b12b8000 	C:\WINDOWS\System32\gdi32full.dll
0x00007ff9b0c10000 - 0x00007ff9b0caa000 	C:\WINDOWS\System32\msvcp_win.dll
0x00007ff9b0aa0000 - 0x00007ff9b0b96000 	C:\WINDOWS\System32\ucrtbase.dll
0x00007ff9a6220000 - 0x00007ff9a6487000 	C:\WINDOWS\WinSxS\amd64_microsoft.windows.common-controls_6595b64144ccf1df_6.0.15063.483_none_26002d27e7c744a2\COMCTL32.dll
0x00007ff9b2000000 - 0x00007ff9b22f9000 	C:\WINDOWS\System32\combase.dll
0x00007ff9b0ba0000 - 0x00007ff9b0c0a000 	C:\WINDOWS\System32\bcryptPrimitives.dll
0x00007ff9b1ed0000 - 0x00007ff9b1efd000 	C:\WINDOWS\System32\IMM32.DLL
0x0000000075250000 - 0x0000000075322000 	C:\Program Files\Java\jre1.8.0_144\bin\msvcr100.dll
0x0000000074040000 - 0x00000000748dd000 	C:\Program Files\Java\jre1.8.0_144\bin\server\jvm.dll
0x00007ff9b4450000 - 0x00007ff9b4458000 	C:\WINDOWS\System32\PSAPI.DLL
0x00007ff9a70b0000 - 0x00007ff9a70b9000 	C:\WINDOWS\SYSTEM32\WSOCK32.dll
0x00007ff9b1d10000 - 0x00007ff9b1d7c000 	C:\WINDOWS\System32\WS2_32.dll
0x00007ff9a89c0000 - 0x00007ff9a89e3000 	C:\WINDOWS\SYSTEM32\WINMM.dll
0x00007ff9a9030000 - 0x00007ff9a903a000 	C:\WINDOWS\SYSTEM32\VERSION.dll
0x00007ff9a85b0000 - 0x00007ff9a85db000 	C:\WINDOWS\SYSTEM32\WINMMBASE.dll
0x00007ff9b0980000 - 0x00007ff9b09c9000 	C:\WINDOWS\System32\cfgmgr32.dll
0x0000000076e90000 - 0x0000000076e9f000 	C:\Program Files\Java\jre1.8.0_144\bin\verify.dll
0x0000000075e70000 - 0x0000000075e99000 	C:\Program Files\Java\jre1.8.0_144\bin\java.dll
0x0000000075330000 - 0x0000000075346000 	C:\Program Files\Java\jre1.8.0_144\bin\zip.dll
0x00007ff9b2300000 - 0x00007ff9b3736000 	C:\WINDOWS\System32\SHELL32.dll
0x00007ff9b3df0000 - 0x00007ff9b3e9a000 	C:\WINDOWS\System32\shcore.dll
0x00007ff9b12c0000 - 0x00007ff9b19b3000 	C:\WINDOWS\System32\windows.storage.dll
0x00007ff9b1bb0000 - 0x00007ff9b1c01000 	C:\WINDOWS\System32\shlwapi.dll
0x00007ff9b08d0000 - 0x00007ff9b08e1000 	C:\WINDOWS\System32\kernel.appcore.dll
0x00007ff9b08f0000 - 0x00007ff9b093c000 	C:\WINDOWS\System32\powrprof.dll
0x00007ff9b0960000 - 0x00007ff9b0975000 	C:\WINDOWS\System32\profapi.dll
0x0000000180000000 - 0x0000000180025000 	C:\Users\Robot_Tim\eclipse-workspace\Service#2\dll\rxtxSerial.dll
0x00007ff9b0320000 - 0x00007ff9b0337000 	C:\WINDOWS\SYSTEM32\CRYPTSP.dll
0x00007ff9afda0000 - 0x00007ff9afdd4000 	C:\WINDOWS\system32\rsaenh.dll
0x00007ff9b07a0000 - 0x00007ff9b07c5000 	C:\WINDOWS\SYSTEM32\bcrypt.dll
0x00007ff99f400000 - 0x00007ff99f45d000 	C:\Users\Robot_Tim\eclipse-workspace\Service#2\dll\libpxcclr.jni64.dll
0x00007ff9b0800000 - 0x00007ff9b0829000 	C:\WINDOWS\SYSTEM32\USERENV.dll
0x00007ff98bec0000 - 0x00007ff98bf7a000 	C:\Program Files\Common Files\Intel\RSSDK\v10\bin\x64\libpxcsession.dll
0x00007ff9b1d80000 - 0x00007ff9b1ec5000 	C:\WINDOWS\System32\ole32.dll
0x00007ff9b0340000 - 0x00007ff9b034b000 	C:\WINDOWS\SYSTEM32\CRYPTBASE.dll
0x00007ff9910e0000 - 0x00007ff991143000 	C:\Program Files\Common Files\Intel\RSSDK\v10\bin\x64\tbb.dll
0x00007ff98a1d0000 - 0x00007ff98a277000 	C:\WINDOWS\SYSTEM32\MSVCP110.dll
0x00007ff98a0f0000 - 0x00007ff98a1c4000 	C:\WINDOWS\SYSTEM32\MSVCR110.dll
0x00007ff987510000 - 0x00007ff987720000 	C:\Program Files\Common Files\Intel\RSSDK\v10\bin\x64\libpxccore.dll
0x0000000075ae0000 - 0x0000000075afa000 	C:\Program Files\Java\jre1.8.0_144\bin\net.dll
0x00007ff9b0180000 - 0x00007ff9b01dc000 	C:\WINDOWS\system32\mswsock.dll
0x00007ff9b07d0000 - 0x00007ff9b0800000 	C:\WINDOWS\SYSTEM32\SspiCli.dll
0x00007ff989d00000 - 0x00007ff989e05000 	C:\Program Files\Common Files\Intel\RSSDK\v10\bin\x64\intel-ias2.dll
0x00007ff99ebd0000 - 0x00007ff99ec1d000 	C:\Program Files\Common Files\Intel\RSSDK\v10\bin\x64\libpxclanternrock.dll
0x00007ff9aff20000 - 0x00007ff9aff57000 	C:\WINDOWS\SYSTEM32\IPHLPAPI.DLL
0x00007ff9b3c10000 - 0x00007ff9b3c18000 	C:\WINDOWS\System32\NSI.dll
0x00007ff9ab1a0000 - 0x00007ff9ab1b6000 	C:\WINDOWS\SYSTEM32\dhcpcsvc6.DLL
0x00007ff986a20000 - 0x00007ff986b47000 	C:\Program Files\Common Files\Intel\RSSDK\v10\bin\x64\libpxcpipelineutils.dll
0x00007ff9af480000 - 0x00007ff9af515000 	C:\WINDOWS\system32\uxtheme.dll
0x00007ff9ab550000 - 0x00007ff9ab56a000 	C:\WINDOWS\SYSTEM32\dhcpcsvc.DLL
0x00007ff96e100000 - 0x00007ff973a32000 	C:\Program Files\Common Files\Intel\RSSDK\v10\bin\x64\libpxchand_core.dll
0x00007ff9b1af0000 - 0x00007ff9b1bb0000 	C:\WINDOWS\System32\OLEAUT32.dll
0x00007ff9b3990000 - 0x00007ff9b3a98000 	C:\WINDOWS\System32\COMDLG32.dll
0x00007ff9687a0000 - 0x00007ff96e0f8000 	C:\Program Files\Common Files\Intel\RSSDK\v10\bin\x64\libpxchand_track.dll
0x00007ff963f70000 - 0x00007ff968796000 	C:\Program Files\Common Files\Intel\RSSDK\v10\bin\x64\libpxchand_facade.dll
0x00007ff9611e0000 - 0x00007ff963f6e000 	C:\Program Files\Common Files\Intel\RSSDK\v10\bin\x64\libpxchandmodule.dll
0x00007ff9adc10000 - 0x00007ff9adc23000 	C:\Program Files\Common Files\Intel\RSSDK\v10\bin\x64\libpxcpowermanager.dll
0x00007ff978230000 - 0x00007ff978762000 	C:\Program Files\Common Files\Intel\RSDCM_SR300\bin\x64\IVCAM1_5.dll
0x00007ff9b4010000 - 0x00007ff9b444b000 	C:\WINDOWS\System32\SETUPAPI.dll
0x00007ff98c690000 - 0x00007ff98c71f000 	C:\WINDOWS\SYSTEM32\MF.dll
0x00007ff99fde0000 - 0x00007ff99ff80000 	C:\WINDOWS\SYSTEM32\MFPlat.DLL
0x00007ff988840000 - 0x00007ff988934000 	C:\WINDOWS\SYSTEM32\MFReadWrite.dll
0x00007ff98bfd0000 - 0x00007ff98c052000 	C:\WINDOWS\SYSTEM32\newdev.dll
0x00007ff9adc60000 - 0x00007ff9adc6b000 	C:\WINDOWS\SYSTEM32\WINUSB.DLL
0x00007ff989c40000 - 0x00007ff989cf4000 	C:\WINDOWS\SYSTEM32\ODBC32.dll
0x00007ff9afde0000 - 0x00007ff9afdea000 	C:\WINDOWS\SYSTEM32\DPAPI.dll
0x00007ff9ad260000 - 0x00007ff9ad273000 	C:\WINDOWS\SYSTEM32\devrtl.DLL
0x00007ff98a780000 - 0x00007ff98abf8000 	C:\WINDOWS\SYSTEM32\MFCORE.DLL
0x00007ff9b0cb0000 - 0x00007ff9b0e79000 	C:\WINDOWS\System32\CRYPT32.dll
0x00007ff9b0940000 - 0x00007ff9b0951000 	C:\WINDOWS\System32\MSASN1.dll
0x00007ff9aba50000 - 0x00007ff9aba59000 	C:\WINDOWS\SYSTEM32\ksuser.dll
0x00007ff9a1530000 - 0x00007ff9a1562000 	C:\WINDOWS\SYSTEM32\RTWorkQ.DLL
0x00007ff977d80000 - 0x00007ff97822a000 	C:\Program Files\Common Files\Intel\RSDCM_SR300\bin\x64\libpxccamera_dcm_sr300.dll
0x00007ff999360000 - 0x00007ff9993ea000 	C:\WINDOWS\SYSTEM32\WINSPOOL.DRV
0x00007ff9a4da0000 - 0x00007ff9a4da7000 	C:\WINDOWS\SYSTEM32\MSIMG32.dll
0x00007ff99d940000 - 0x00007ff99d9ab000 	C:\WINDOWS\SYSTEM32\OLEACC.dll
0x00007ff99afb0000 - 0x00007ff99b145000 	C:\WINDOWS\WinSxS\amd64_microsoft.windows.gdiplus_6595b64144ccf1df_1.1.15063.608_none_56f0266b425534e9\gdiplus.dll
0x00007ff9b1c70000 - 0x00007ff9b1d0e000 	C:\WINDOWS\System32\clbcatq.dll
0x0000000075ac0000 - 0x0000000075ad1000 	C:\Program Files\Java\jre1.8.0_144\bin\nio.dll
0x0000000076e80000 - 0x0000000076e8c000 	C:\Program Files\Java\jre1.8.0_144\bin\jsound.dll
0x0000000075f00000 - 0x0000000075f0b000 	C:\Program Files\Java\jre1.8.0_144\bin\jsoundds.dll
0x00007ff9a0560000 - 0x00007ff9a05ec000 	C:\WINDOWS\SYSTEM32\DSOUND.dll
0x00007ff9ac560000 - 0x00007ff9ac5c7000 	C:\WINDOWS\SYSTEM32\MMDevAPI.DLL
0x00007ff9af520000 - 0x00007ff9af548000 	C:\WINDOWS\SYSTEM32\DEVOBJ.dll
0x00007ff9acc50000 - 0x00007ff9acde6000 	C:\WINDOWS\SYSTEM32\PROPSYS.dll
0x00007ff99f180000 - 0x00007ff99f1c1000 	C:\WINDOWS\SYSTEM32\wdmaud.drv
0x00007ff9aca40000 - 0x00007ff9aca4b000 	C:\WINDOWS\SYSTEM32\AVRT.dll
0x00007ff9ab070000 - 0x00007ff9ab175000 	C:\WINDOWS\SYSTEM32\AUDIOSES.DLL
0x00007ff9ad360000 - 0x00007ff9ad499000 	C:\WINDOWS\SYSTEM32\wintypes.dll
0x00007ff9ad350000 - 0x00007ff9ad35d000 	C:\WINDOWS\SYSTEM32\msacm32.drv
0x00007ff9a7e60000 - 0x00007ff9a7e7c000 	C:\WINDOWS\SYSTEM32\MSACM32.dll
0x00007ff9ad330000 - 0x00007ff9ad33a000 	C:\WINDOWS\SYSTEM32\midimap.dll
0x00007ff9a49b0000 - 0x00007ff9a4ab6000 	C:\Windows\System32\Windows.UI.dll
0x00007ff9a4b50000 - 0x00007ff9a4bd2000 	C:\Windows\System32\TextInputFramework.dll
0x00007ff9a25c0000 - 0x00007ff9a2892000 	C:\Windows\System32\CoreUIComponents.dll
0x00007ff9ae7d0000 - 0x00007ff9ae8b3000 	C:\Windows\System32\CoreMessaging.dll
0x00007ff9afb30000 - 0x00007ff9afb61000 	C:\WINDOWS\SYSTEM32\ntmarta.dll
0x00007ff9ad680000 - 0x00007ff9ad695000 	C:\WINDOWS\SYSTEM32\usermgrcli.dll
0x00007ff9a2c80000 - 0x00007ff9a2c9a000 	C:\Program Files\Common Files\Intel\RSDCM_SR300\bin\x64\RealSenseDcmPS_SR300.dll
0x0000000076ff0000 - 0x0000000076ffd000 	C:\Program Files\Java\jre1.8.0_144\bin\management.dll
0x00007ff98f440000 - 0x00007ff98f456000 	C:\WINDOWS\system32\napinsp.dll
0x00007ff98f9c0000 - 0x00007ff98f9da000 	C:\WINDOWS\system32\pnrpnsp.dll
0x00007ff9adb30000 - 0x00007ff9adb48000 	C:\WINDOWS\system32\NLAapi.dll
0x00007ff9aff60000 - 0x00007ff9b0004000 	C:\WINDOWS\SYSTEM32\DNSAPI.dll
0x00007ff98f9e0000 - 0x00007ff98f9ee000 	C:\WINDOWS\System32\winrnr.dll
0x00007ff99f500000 - 0x00007ff99f515000 	C:\WINDOWS\System32\wshbth.dll
0x0000000074970000 - 0x00000000749a5000 	C:\Program Files\Bonjour\mdnsNSP.dll
0x00007ff9a7c50000 - 0x00007ff9a7c5a000 	C:\Windows\System32\rasadhlp.dll
0x00007ff9ab1e0000 - 0x00007ff9ab24b000 	C:\WINDOWS\System32\fwpuclnt.dll
0x000000001a6c0000 - 0x000000001a6f7000 	C:\Users\Robot_Tim\AppData\Local\Temp\jna775549729722638962.dll
0x00007ff960cc0000 - 0x00007ff9611d5000 	C:\Users\Robot_Tim\eclipse-workspace\Service#2\dll\edk.dll
0x00007ff9b1fa0000 - 0x00007ff9b1ffc000 	C:\WINDOWS\System32\WLDAP32.dll
0x00007ff9b1f60000 - 0x00007ff9b1f68000 	C:\WINDOWS\System32\Normaliz.dll
0x00007ff9af790000 - 0x00007ff9af79d000 	C:\WINDOWS\SYSTEM32\HID.DLL
0x00007ff98a050000 - 0x00007ff98a0ef000 	C:\WINDOWS\SYSTEM32\MSVCP140.dll
0x00007ff9a15a0000 - 0x00007ff9a15b6000 	C:\WINDOWS\SYSTEM32\VCRUNTIME140.dll
0x00007ff9a71e0000 - 0x00007ff9a71ec000 	C:\WINDOWS\SYSTEM32\secur32.dll

VM Arguments:
jvm_args: -Djava.library.path=C:\Users\Robot_Tim\eclipse-workspace\Service#2\dll -Dfile.encoding=Cp1251 
java_command: io.ccs.service.Service
java_class_path (initial): C:\Users\Robot_Tim\eclipse-workspace\Service#2\bin;C:\Users\Robot_Tim\eclipse-workspace\Service#2\dep\RXTXcomm.jar;C:\Users\Robot_Tim\eclipse-workspace\Service#2\dep\sphinx4-core-1.0-20150630.174404-9.jar;C:\Users\Robot_Tim\eclipse-workspace\Service#2\dep\netty-all-4.1.4.Final.jar;C:\Users\Robot_Tim\eclipse-workspace\Service#2\dep\libpxcclr.java.jar;C:\Users\Robot_Tim\eclipse-workspace\Service#2\dep\CommandRose.jar;C:\Users\Robot_Tim\eclipse-workspace\Service#2\dep\DecisionMakingSystem.jar;C:\Users\Robot_Tim\eclipse-workspace\Service#2\dep\SoundNotification.jar;C:\Users\Robot_Tim\eclipse-workspace\Service#2\dep\BCI.jar;C:\Users\Robot_Tim\eclipse-workspace\Service#2\dep\jna.jar
Launcher Type: SUN_STANDARD

Environment Variables:
PATH=C:/Program Files/Java/jre1.8.0_144/bin/server;C:/Program Files/Java/jre1.8.0_144/bin;C:/Program Files/Java/jre1.8.0_144/lib/amd64;C:\ProgramData\Oracle\Java\javapath;C:\Program Files (x86)\Intel\iCLS Client\;C:\Program Files\Intel\iCLS Client\;C:\WINDOWS\system32;C:\WINDOWS;C:\WINDOWS\System32\Wbem;C:\WINDOWS\System32\WindowsPowerShell\v1.0\;C:\Program Files (x86)\Intel\Intel(R) Management Engine Components\DAL;C:\Program Files\Intel\Intel(R) Management Engine Components\DAL;C:\Program Files (x86)\Intel\Intel(R) Management Engine Components\IPT;C:\Program Files\Intel\Intel(R) Management Engine Components\IPT;C:\Users\Robot_Tim\AppData\Local\Microsoft\WindowsApps;;C:\Users\Robot_Tim\Desktop;
USERNAME=Robot_Tim
OS=Windows_NT
PROCESSOR_IDENTIFIER=Intel64 Family 6 Model 69 Stepping 1, GenuineIntel



---------------  S Y S T E M  ---------------

OS: Windows 10.0 , 64 bit Build 15063 (10.0.15063.296)

CPU:total 4 (initial active 4) (2 cores per cpu, 2 threads per core) family 6 model 69 stepping 1, cmov, cx8, fxsr, mmx, sse, sse2, sse3, ssse3, sse4.1, sse4.2, popcnt, avx, avx2, aes, clmul, erms, lzcnt, ht, tsc, tscinvbit, bmi1, bmi2

Memory: 4k page, physical 4113740k(1371640k free), swap 5555532k(1145488k free)

vm_info: Java HotSpot(TM) 64-Bit Server VM (25.144-b01) for windows-amd64 JRE (1.8.0_144-b01), built on Jul 21 2017 21:57:33 by "java_re" with MS VC++ 10.0 (VS2010)

time: Wed Feb 21 20:03:07 2018
elapsed time: 6 seconds (0d 0h 0m 6s)

